<section class="content-header">
    <h1>
        Buat {realModuleName}<small></small>
    </h1>
    <ol class="breadcrumb">
        <li><a href="{!!url()!!}/dashboard#/"> Dashboard</a></li>
        <li><a href="{!!ClaravelHelpers::backCreate()!!}"> Users</a></li>
        <li class="active">Buat {realModuleName}</li>
    </ol>
</section>
<section class="content" ng-controller="{Module}ControllerCreate">
    <div class="box box-primary">
        <div class="box-body">
            <div class="row">
                <div class="col-md-8">
                    <form name="moduleForm" class="form-horizontal" ng-submit="submitForm()" novalidate id="simpan" autocomplete="off">
                        {fields}
                        <div class="form-group">
                            <div class="col-sm-offset-2 col-sm-6">
                                {!! ClaravelHelpers::btnSave('moduleForm')!!}
                                &nbsp;
                                &nbsp;
                                {!! ClaravelHelpers::btnCancel()!!}
                            </div>
                        </div>
                    </form>
                </div>
            </div>
        </div>
    </div>
</section>